Digital/Lab1_1/simulation/qsim/Lab1_1.msim.vcd
$comment
	File created using the following command:
		vcd file Lab1_1.msim.vcd -direction
$end
$date
	Sun Sep 24 14:20:00 2017
$end
$version
	ModelSim Version 10.1d
$end
$timescale
	1ps
$end
$scope module Lab1_1_vlg_vec_tst $end
$var reg 1 ! E $end
$var reg 8 " InputA [7:0] $end
$var reg 8 # InputB [7:0] $end
$var reg 1 $ S $end
$var wire 1 % OUT [7] $end
$var wire 1 & OUT [6] $end
$var wire 1 ' OUT [5] $end
$var wire 1 ( OUT [4] $end
$var wire 1 ) OUT [3] $end
$var wire 1 * OUT [2] $end
$var wire 1 + OUT [1] $end
$var wire 1 , OUT [0] $end
$var wire 1 - sampler $end
$scope module i1 $end
$var wire 1 . gnd $end
$var wire 1 / vcc $end
$var wire 1 0 unknown $end
$var tri1 1 1 devclrn $end
$var tri1 1 2 devpor $end
$var tri1 1 3 devoe $end
$var wire 1 4 E~combout $end
$var wire 1 5 S~combout $end
$var wire 1 6 inst9|inst5~0_combout $end
$var wire 1 7 inst3|inst5~0_combout $end
$var wire 1 8 inst8|inst5~0_combout $end
$var wire 1 9 inst2|inst5~0_combout $end
$var wire 1 : inst7|inst5~0_combout $end
$var wire 1 ; inst1|inst5~0_combout $end
$var wire 1 < inst5|inst5~0_combout $end
$var wire 1 = inst|inst5~0_combout $end
$var wire 1 > InputB~combout [7] $end
$var wire 1 ? InputB~combout [6] $end
$var wire 1 @ InputB~combout [5] $end
$var wire 1 A InputB~combout [4] $end
$var wire 1 B InputB~combout [3] $end
$var wire 1 C InputB~combout [2] $end
$var wire 1 D InputB~combout [1] $end
$var wire 1 E InputB~combout [0] $end
$var wire 1 F InputA~combout [7] $end
$var wire 1 G InputA~combout [6] $end
$var wire 1 H InputA~combout [5] $end
$var wire 1 I InputA~combout [4] $end
$var wire 1 J InputA~combout [3] $end
$var wire 1 K InputA~combout [2] $end
$var wire 1 L InputA~combout [1] $end
$var wire 1 M InputA~combout [0] $end
$upscope $end
$upscope $end
$enddefinitions $end
#0
$dumpvars
1!
b11101100 "
b1011001 #
0$
0,
0+
1*
1)
0(
1'
1&
1%
x-
0.
1/
x0
11
12
13
14
05
16
17
18
09
1:
1;
0<
0=
1E
0D
0C
1B
1A
0@
1?
0>
0M
0L
1K
1J
0I
1H
1G
1F
$end
#10000
b1101100 "
b1001100 "
b1001110 "
b1001111 "
b11011001 #
b10011001 #
b10111001 #
b10101001 #
b10101101 #
b10101111 #
0!
1D
1C
0A
1@
0?
1>
1M
1L
0H
0F
04
0-
0;
08
07
06
0:
0*
0'
0&
0%
0)
#20000
b1011111 "
b1011011 "
b1111011 "
b1111001 "
b101111 #
b1111 #
b11111 #
1!
1A
0@
0>
0L
0K
1I
1H
14
1-
19
18
1=
1:
17
1(
1'
1,
1)
1&
#30000
b10111 #
1$
b11111001 "
b11111000 "
b1010111 #
b1010011 #
b11101000 "
b11001000 "
b1110011 #
b1100011 #
15
0M
0I
0H
1F
0C
0B
0A
1@
1?
0-
1<
0:
09
1+
0)
0(
#40000
b10001000 "
b1100010 #
b10001100 "
b10001110 "
b11100010 #
b11101010 #
b1110 "
b10101010 #
b101110 "
b10001010 #
b10011010 #
0E
1B
1A
0@
0?
1>
1L
1K
1H
0G
0F
1-
0=
1:
19
08
07
16
0,
1)
1(
0'
0&
1%
#50000
b10011000 #
0!
0$
b10011100 #
b1101110 "
b1101010 "
b1101000 "
b11011100 #
b1001000 "
b11111100 #
b11101100 #
04
05
0L
0K
0H
1G
0D
1C
0A
1@
1?
0-
0<
0:
09
06
0+
0)
0(
0%
#60000
b1000000 "
b1010000 "
b11101101 #
b1101101 #
b1100101 #
b1010100 "
b1110100 "
b1000101 #
1E
0B
0@
0>
1K
0J
1I
1H
1-
#70000
b11110100 "
b1000111 #
1$
b10110100 "
b10110110 "
b111 #
b10111 #
b10111110 "
b10101110 "
b10010111 #
b10110111 #
1D
1A
1@
0?
1>
1L
1J
0I
0G
1F
15
0-
#80000
b10101111 "
b10110011 #
b10101011 "
b10001011 "
0$
b10001001 "
b110011 #
0C
0>
1M
0L
0K
0H
05
1-
#90000
b110010 #
b111010 #
b11001001 "
b1111010 #
b11000001 "
b11000000 "
b11000100 "
b11100100 "
1$
b11111010 #
0M
1K
0J
1H
1G
0E
1B
1?
1>
15
0-
#100000
1!
b11111000 #
b11110100 "
b11111100 #
b11111101 #
b10110100 "
b10110101 "
b10110001 "
0$
b1111101 #
14
1M
0K
1I
0G
1E
0D
1C
0>
05
1-
1=
19
18
16
1,
1(
1'
1%
#110000
b1011101 #
0!
b10100001 "
b10100101 "
b11011101 #
04
1K
0I
0@
1>
0-
0=
09
08
06
0,
0(
0'
0%
#120000
b11010101 #
b10101101 "
b11010111 #
b11110111 #
1!
1J
1D
0B
1@
14
1-
1:
18
1=
1;
16
1)
1'
1,
1*
1%
#130000
b10101111 "
b10001111 "
b11110011 #
b11110010 #
b10011111 "
b10011011 "
b10010011 "
b11010010 #
0E
0C
0@
1L
0K
0J
1I
0H
0-
0;
08
1<
0:
19
0*
0'
1+
0)
1(
#140000
b10011 "
b11000010 #
b1010011 "
b1010010 "
b1000010 #
b1001010 #
b1001000 #
b1010000 "
b1001100 #
b1000000 "
b1000100 "
b1101100 #
0D
1C
1B
0A
1@
0>
0M
0L
1K
0I
1G
0F
1-
0<
1;
09
06
0=
17
0+
1*
0(
0%
0,
1&
#150000
1$
b1001100 "
b11001100 "
b1111100 #
b10001100 "
b11111100 #
b11111000 #
b10011100 "
b10011000 "
b11011000 #
15
0C
1A
0@
1>
0K
1J
1I
0G
1F
0-
0;
1:
19
16
0*
1)
1(
1%
