Digital/Lab2/Lab2/simulation/qsim/Lab2_1.msim.vcd
$comment
	File created using the following command:
		vcd file Lab2_1.msim.vcd -direction
$end
$date
	Mon Oct 23 12:47:34 2017
$end
$version
	ModelSim Version 10.5b
$end
$timescale
	1ps
$end

$scope module Lab2_1_vlg_vec_tst $end
$var reg 1 ! c0 $end
$var reg 8 " InputA [7:0] $end
$var reg 8 # InputB [7:0] $end
$var wire 1 $ c8 $end
$var wire 1 % Out [7] $end
$var wire 1 & Out [6] $end
$var wire 1 ' Out [5] $end
$var wire 1 ( Out [4] $end
$var wire 1 ) Out [3] $end
$var wire 1 * Out [2] $end
$var wire 1 + Out [1] $end
$var wire 1 , Out [0] $end

$scope module i1 $end
$var wire 1 - gnd $end
$var wire 1 . vcc $end
$var wire 1 / unknown $end
$var tri1 1 0 devclrn $end
$var tri1 1 1 devpor $end
$var tri1 1 2 devoe $end
$var wire 1 3 c8~output_o $end
$var wire 1 4 Out[7]~output_o $end
$var wire 1 5 Out[6]~output_o $end
$var wire 1 6 Out[5]~output_o $end
$var wire 1 7 Out[4]~output_o $end
$var wire 1 8 Out[3]~output_o $end
$var wire 1 9 Out[2]~output_o $end
$var wire 1 : Out[1]~output_o $end
$var wire 1 ; Out[0]~output_o $end
$var wire 1 < InputA[2]~input_o $end
$var wire 1 = InputA[1]~input_o $end
$var wire 1 > InputB[1]~input_o $end
$var wire 1 ? InputB[2]~input_o $end
$var wire 1 @ inst|inst|inst10~0_combout $end
$var wire 1 A InputA[3]~input_o $end
$var wire 1 B InputB[3]~input_o $end
$var wire 1 C InputB[0]~input_o $end
$var wire 1 D inst|inst|inst6~0_combout $end
$var wire 1 E c0~input_o $end
$var wire 1 F InputA[0]~input_o $end
$var wire 1 G inst|inst|inst6~1_combout $end
$var wire 1 H inst|inst|inst10~1_combout $end
$var wire 1 I InputA[5]~input_o $end
$var wire 1 J InputB[4]~input_o $end
$var wire 1 K InputB[5]~input_o $end
$var wire 1 L InputA[4]~input_o $end
$var wire 1 M inst1|inst|inst5~0_combout $end
$var wire 1 N InputA[6]~input_o $end
$var wire 1 O InputB[6]~input_o $end
$var wire 1 P inst1|inst|inst7~2_combout $end
$var wire 1 Q InputB[7]~input_o $end
$var wire 1 R InputA[7]~input_o $end
$var wire 1 S inst1|inst6|inst~combout $end
$var wire 1 T inst1|inst5|inst~combout $end
$var wire 1 U inst1|inst4|inst~combout $end
$var wire 1 V inst1|inst|inst10~3_combout $end
$var wire 1 W inst1|inst|inst10~2_combout $end
$var wire 1 X inst1|inst|inst9~0_combout $end
$var wire 1 Y inst1|inst|inst10~4_combout $end
$var wire 1 Z inst1|inst|inst10~5_combout $end
$var wire 1 [ inst1|inst|inst6~0_combout $end
$var wire 1 \ inst1|inst6|inst1~combout $end
$var wire 1 ] inst1|inst|inst3~0_combout $end
$var wire 1 ^ inst1|inst5|inst1~combout $end
$var wire 1 _ inst1|inst4|inst1~combout $end
$var wire 1 ` inst1|inst3|inst1~combout $end
$var wire 1 a inst|inst|inst6~2_combout $end
$var wire 1 b inst|inst6|inst1~combout $end
$var wire 1 c inst|inst|inst3~0_combout $end
$var wire 1 d inst|inst4|inst~combout $end
$var wire 1 e inst|inst|inst5~combout $end
$var wire 1 f inst|inst5|inst1~combout $end
$var wire 1 g inst|inst4|inst1~combout $end
$var wire 1 h inst|inst3|inst1~combout $end
$upscope $end
$upscope $end
$enddefinitions $end
#0
$dumpvars
0!
b1111000 "
b1011111 #
0$
1,
1+
1*
0)
1(
0'
1&
1%
0-
1.
x/
10
11
12
03
14
15
06
17
08
19
1:
1;
0<
0=
1>
1?
0@
1A
1B
1C
1D
0E
0F
0G
1H
1I
1J
0K
1L
0M
1N
1O
0P
0Q
0R
0S
0T
1U
0V
0W
0X
0Y
0Z
1[
1\
1]
1^
0_
1`
0a
0b
0c
1d
0e
1f
1g
1h
$end
#5000
1!
1E
1e
1G
0h
0g
0:
0;
0,
0+
0f
1b
18
09
0*
1)
#20000
0!
0E
0e
0G
1h
1g
1:
1;
1,
1+
1f
0b
08
19
1*
0)
#35000
1!
1E
1e
1G
0h
0g
0:
0;
0,
0+
0f
1b
18
09
0*
1)
#40000
b11111000 "
b11011000 "
b11010000 "
b11111 #
b1111 #
b111 #
b11 #
0!
0?
0B
0J
0O
0A
0I
1R
0E
0D
0H
0]
0[
1T
0U
1S
0e
0G
1f
0`
1h
1g
1:
1;
07
19
1*
0(
1,
1+
1`
0f
0b
08
09
17
1(
0*
0)
#50000
1!
1E
1e
0h
0g
0:
0;
0,
0+
1f
19
1*
#55000
0!
0E
0e
1h
1g
1:
1;
1,
1+
0f
09
0*
#60000
1!
1E
1e
0h
0g
0:
0;
0,
0+
1f
19
1*
#65000
0!
0E
0e
1h
1g
1:
1;
1,
1+
0f
09
0*
#70000
1!
1E
1e
0h
0g
0:
0;
0,
0+
1f
19
1*
#80000
b10010000 "
b10010100 "
b10010110 "
b10000011 #
b10000010 #
b10110 "
b11110 "
b10000110 #
0C
1?
1Q
1=
1<
1A
0N
0R
0e
1c
1a
1@
0d
0T
1h
1g
1b
18
1:
1;
1H
1,
1+
1)
0b
0g
0^
05
0:
08
0)
0+
0&
0`
1_
16
07
0(
1'
#90000
0!
0E
0h
0;
0,
#105000
1!
1E
1h
1;
1,
#115000
0!
0E
0h
0;
0,
#120000
b11111 "
b10100110 #
b10100100 #
b111111 "
b10110100 #
b10111100 #
b111100 #
b111101 #
b10111111 "
1!
1C
0>
1B
1J
1K
0Q
1F
1I
1R
1E
1d
1]
1h
1g
1b
1`
17
18
1:
1;
1,
1+
1)
1(
0g
1^
15
0:
0+
1&
#125000
0!
0E
0h
0;
0,
#130000
1!
1E
1h
1;
1,
#140000
0!
0E
0h
0;
0,
#145000
1!
1E
1h
1;
1,
#155000
0!
0E
0h
0;
0,
#160000
b10101111 "
b11101111 "
b11101101 "
b111111 #
b101111 #
b10101111 #
1>
0J
1Q
0=
0L
1N
1W
0S
1[
1X
1T
0_
06
1Y
0'
0^
05
0&
1Z
13
1$
#165000
1!
1E
1h
1;
1,
#175000
0!
0E
0h
0;
0,
#180000
1!
1E
1h
1;
1,
#200000
b11101111 #
b11101011 #
b11001011 #
b11000011 #
b11000010 #
b1101101 "
b1101111 "
b11000000 #
b1000000 #
0!
1=
0R
0C
0>
0?
0B
0K
1O
0Q
0E
0c
0a
1D
0@
0W
0]
0X
1U
0T
1g
0f
0b
08
09
1:
0H
0Y
1+
0*
0)
1f
1b
1_
16
18
19
1*
1)
1'
0`
0Z
03
07
0(
0$
#230000
1!
1E
1e
1G
0h
0g
0:
0;
1H
0,
0+
0f
0b
08
09
0*
0)
1`
17
1(
#235000
0!
0E
0e
0G
1h
1g
1:
1;
0H
1,
1+
1f
1b
18
19
1*
1)
0`
07
0(
#240000
b1101110 "
b1001110 "
b1011110 "
b11110 "
b0 #
b1 #
b10011110 "
b10011100 "
b11 #
1C
1>
0O
0F
0=
1L
0I
0N
1R
0[
0U
1S
1`
17
1(
0_
06
0'
#245000
1!
1E
1e
1G
0h
0g
0:
0;
1H
0,
0+
0f
0b
08
09
0*
0)
0`
1_
16
07
0(
1'
#260000
0!
0E
0e
0G
1h
1g
1:
1;
0H
1,
1+
1f
1b
18
19
1*
1)
1`
0_
06
17
1(
0'
#275000
1!
1E
1e
1G
0h
0g
0:
0;
1H
0,
0+
0f
0b
08
09
0*
0)
0`
1_
16
07
0(
1'
#280000
b100011 #
b101011 #
b11011100 "
b1011100 "
0!
1N
0R
1B
1K
0E
1T
0S
1U
1M
0e
0G
1b
1h
1g
1:
1;
18
1P
1)
1,
1+
0\
0_
1f
0b
08
19
06
04
0%
0'
1*
0)
1\
14
1%
#285000
1!
1E
1e
1G
0h
0g
0:
0;
0,
0+
0f
1b
18
09
0*
1)
#290000
0!
0E
0e
0G
1h
1g
1:
1;
1,
1+
1f
0b
08
19
1*
0)
#295000
1!
1E
1e
1G
0h
0g
0:
0;
0,
0+
0f
1b
18
09
0*
1)
#305000
0!
0E
0e
0G
1h
1g
1:
1;
1,
1+
1f
0b
08
19
1*
0)
#320000
b1011000 "
b1010000 "
b1010001 "
b101010 #
b1010011 "
b1010 #
b10 #
b10011 "
b10010011 "
0C
0B
0K
1F
1=
0<
0A
0N
1R
1c
0H
0U
0M
0d
0D
0T
0P
1S
0f
1Z
13
09
0*
1$
1f
1`
0g
0Z
03
0:
17
19
1*
1(
0+
0$
#325000
1!
1E
0h
1g
1:
0;
0,
1+
#330000
0!
0E
1h
0g
0:
1;
1,
0+
#345000
1!
1E
0h
1g
1:
0;
0,
1+
#360000
b1000010 #
b1000000 #
b10010111 "
b10010110 "
b1000001 #
b10010100 "
b1100001 #
b1101001 #
b10100 "
0F
0=
1<
0R
1C
0>
1B
1K
1O
0c
0S
1U
1M
1T
0f
1b
18
09
0*
1)
1f
0\
1_
1^
15
16
04
19
1*
0%
1'
1&
#365000
0!
0E
1h
0g
0:
1;
1,
0+
#380000
1!
1E
0h
1g
1:
0;
0,
1+
#385000
0!
0E
1h
0g
0:
1;
1,
0+
#390000
1!
1E
0h
1g
1:
0;
0,
1+
#395000
0!
0E
1h
0g
0:
1;
1,
0+
#400000
b1111001 #
b11111001 #
b110100 "
b100100 "
b101100 "
b11111000 #
b11011000 #
b11010000 #
1!
1A
0L
1I
0C
0B
1J
0K
1Q
1E
1S
1\
14
1%
#405000
0!
0E
0h
0;
0,
#410000
1!
1E
1h
1;
1,
#420000
0!
0E
0h
0;
0,
#430000
1!
1E
1h
1;
1,
#440000
b11010010 #
b101000 "
b101010 "
b10101010 "
b1010010 #
b10001010 "
b1010011 #
b1110011 #
1=
0<
0I
1R
1C
1>
1K
0Q
1c
0f
0h
1g
1:
0;
09
0*
0,
1+
1f
19
1*
#465000
0!
0E
1h
0g
0:
1;
1,
0+
#480000
b11001010 "
b110011 #
b11001011 "
b11011011 "
b111011 #
b111001 #
b1011011 "
1!
0>
1B
0O
1F
1L
1N
0R
1E
1d
1H
1]
1V
0M
0S
0b
1g
0`
0_
06
07
1:
08
0)
1+
0(
0'
0g
1`
0^
05
17
0:
0+
1(
0&
#495000
0!
0E
0h
0;
0,
#500000
1!
1E
1h
1;
1,
#510000
0!
0E
0h
0;
0,
#520000
b101001 #
b1010011 "
b1010111 "
b10101001 #
b1110111 "
b10101000 #
b11101000 #
b11100000 #
b11100010 #
b11110111 "
1!
1<
0A
1I
1R
0C
1>
0B
0J
1O
1Q
1E
1a
1@
0H
1[
0U
1W
1e
0d
0V
0T
0f
0`
07
09
1Y
0e
0*
0(
1b
1`
1^
1g
1:
15
17
18
1)
1(
1&
1+
1Z
13
1$
#560000
b11110101 "
b11000010 #
b10110101 "
b10110100 "
b10111100 "
b10000010 #
b10001010 #
b10001000 #
0>
1B
0K
0O
0F
0=
1A
0N
0c
0a
0@
1H
0]
0[
1U
1M
1h
0g
0:
1;
1,
0+
1f
0b
0`
0\
04
07
08
19
1*
0)
0(
0%
#565000
0!
0E
0h
0;
0,
#570000
1!
1E
1h
1;
1,
#575000
0!
0E
0h
0;
0,
#580000
1!
1E
1h
1;
1,
#590000
0!
0E
0h
0;
0,
#600000
b10001100 #
b10011100 #
b10111000 "
b11100 #
b10111010 "
b11111010 "
b11111011 "
b11110011 "
b10100 #
b10110 #
1!
1F
1=
0<
0A
1N
1>
1?
0B
1J
0Q
1E
1c
1a
1@
0H
0W
1T
1P
1]
0M
1S
1g
1`
17
1:
0P
0Y
1V
1+
1(
0f
1b
0`
0^
05
07
18
09
1Y
0*
1)
0(
0&
0Z
03
0$
1Z
13
1$
#610000
0!
0E
1h
0g
0:
1;
1,
0+
#620000
1!
1E
0h
1g
1:
0;
0,
1+
#625000
0!
0E
1h
0g
0:
1;
1,
0+
#630000
1!
1E
0h
1g
1:
0;
0,
1+
#635000
0!
0E
1h
0g
0:
1;
1,
0+
