Digital/Lab3/Lab3_1/simulation/qsim/Lab3_1.msim.vcd
$comment
	File created using the following command:
		vcd file Lab3_1.msim.vcd -direction
$end
$date
	Fri Nov 17 17:13:37 2017
$end
$version
	ModelSim Version 10.5b
$end
$timescale
	1ps
$end

$scope module Lab3_1_vlg_vec_tst $end
$var reg 1 ! clk $end
$var reg 1 " CLOCK2_50 $end
$var reg 3 # SW [2:0] $end
$var wire 1 $ LEDR [0] $end

$scope module i1 $end
$var wire 1 % gnd $end
$var wire 1 & vcc $end
$var wire 1 ' unknown $end
$var tri1 1 ( devclrn $end
$var tri1 1 ) devpor $end
$var tri1 1 * devoe $end
$var wire 1 + CLOCK2_50~input_o $end
$var wire 1 , LEDR[0]~output_o $end
$var wire 1 - clk~input_o $end
$var wire 1 . inst7|inst|inst~combout $end
$var wire 1 / inst7|inst|inst9~combout $end
$var wire 1 0 inst7|inst1|inst~combout $end
$var wire 1 1 inst7|inst1|inst9~combout $end
$var wire 1 2 inst7|inst2|inst~combout $end
$var wire 1 3 inst7|inst2|inst9~combout $end
$var wire 1 4 inst7|inst3|inst~combout $end
$var wire 1 5 inst7|inst3|inst9~combout $end
$var wire 1 6 inst7|inst4|inst~combout $end
$var wire 1 7 inst7|inst4|inst9~combout $end
$var wire 1 8 inst7|inst5|inst~combout $end
$var wire 1 9 inst7|inst5|inst9~combout $end
$var wire 1 : inst7|inst6|inst~combout $end
$var wire 1 ; inst7|inst6|inst9~combout $end
$var wire 1 < inst7|inst7|inst~combout $end
$var wire 1 = inst7|inst7|inst9~combout $end
$var wire 1 > SW[2]~input_o $end
$var wire 1 ? SW[1]~input_o $end
$var wire 1 @ SW[0]~input_o $end
$var wire 1 A inst4|LPM_MUX_component|auto_generated|l2_w0_n0_mux_dataout~4_combout $end
$var wire 1 B inst4|LPM_MUX_component|auto_generated|l2_w0_n0_mux_dataout~0_combout $end
$var wire 1 C inst0|inst7~1_combout $end
$upscope $end
$upscope $end
$enddefinitions $end
#0
$dumpvars
0!
x"
b111 #
1$
0%
1&
x'
1(
1)
1*
x+
1,
0-
1.
0/
00
01
02
03
04
05
06
07
08
09
0:
0;
0<
0=
1>
1?
1@
1A
0B
0C
$end
#10000
1!
1-
1/
#20000
0!
0-
10
#30000
1!
1-
11
#40000
0!
0-
12
#50000
1!
1-
13
#60000
0!
0-
14
#70000
1!
1-
15
#80000
0!
0-
16
#90000
1!
1-
17
#100000
0!
0-
18
#110000
1!
1-
19
#120000
0!
0-
1:
#130000
1!
1-
1;
#140000
0!
0-
1<
#150000
1!
1-
1=
1B
1C
0,
0$
#160000
0!
0-
0.
#170000
1!
1-
0/
#180000
0!
0-
00
#190000
1!
1-
01
#200000
0!
0-
02
#210000
1!
1-
03
#220000
0!
0-
04
#230000
1!
1-
05
#240000
0!
0-
06
#250000
1!
1-
07
#260000
0!
0-
08
#270000
1!
1-
09
#280000
0!
0-
0:
#290000
1!
1-
0;
#300000
0!
0-
0<
#310000
1!
1-
0=
0B
0C
1,
1$
#320000
0!
0-
1.
#330000
1!
1-
1/
#340000
0!
0-
10
#350000
1!
1-
11
#360000
0!
0-
12
#370000
1!
1-
13
#380000
0!
0-
14
#390000
1!
1-
15
#400000
0!
0-
16
#410000
1!
1-
17
#420000
0!
0-
18
#430000
1!
1-
19
#440000
0!
0-
1:
#450000
1!
1-
1;
#460000
0!
0-
1<
#470000
1!
1-
1=
1B
1C
0,
0$
#480000
0!
0-
0.
#490000
1!
1-
0/
#500000
0!
0-
00
#510000
1!
1-
01
#520000
0!
0-
02
#530000
1!
1-
03
#540000
0!
0-
04
#550000
1!
1-
05
#560000
0!
0-
06
#570000
1!
1-
07
#580000
0!
0-
08
#590000
1!
1-
09
#600000
0!
0-
0:
#610000
1!
1-
0;
#620000
0!
0-
0<
#630000
1!
1-
0=
0B
0C
1,
1$
#640000
0!
0-
1.
#650000
1!
1-
1/
#660000
0!
0-
10
#670000
1!
1-
11
#680000
0!
0-
12
#690000
1!
1-
13
#700000
0!
0-
14
#710000
1!
1-
15
#720000
0!
0-
16
#730000
1!
1-
17
#740000
0!
0-
18
#750000
1!
1-
19
#760000
0!
0-
1:
#770000
1!
1-
1;
#780000
0!
0-
1<
#790000
1!
1-
1=
1B
1C
0,
0$
#800000
0!
0-
0.
#810000
1!
1-
0/
#820000
0!
0-
00
#830000
1!
1-
01
#840000
0!
0-
02
#850000
1!
1-
03
#860000
0!
0-
04
#870000
1!
1-
05
#880000
0!
0-
06
#890000
1!
1-
07
#900000
0!
0-
08
#910000
1!
1-
09
#920000
0!
0-
0:
#930000
1!
1-
0;
#940000
0!
0-
0<
#950000
1!
1-
0=
0B
0C
1,
1$
#960000
0!
0-
1.
#970000
1!
1-
1/
#980000
0!
0-
10
#990000
1!
1-
11
